{
  "components": {
    "headline": {
      "style": "sticky sticky-top col-12 mb-2 pt-4 px-3 pb-0 bg-white"
    },
    "table": {
      "style": "px-3 mb-3"
    }
  }, 
  "continents": { 
    "slug": "continents",
    "label": "Continents",
    "tooltip": "View all continents in a table, and all their corresponding countries", 
    "headline": "Continents & Archipelagos",
    "unfiltered" : [
      {
        "id": 0,
        "name": "Africa",
        "slug": "africa",
        "countries_id": []
      },
      {
        "id": 1,
        "name": "Antartica",
        "slug": "antartica",
        "countries_id": []
      },
      {
        "id": 2,
        "name": "Asia",
        "slug": "asia",
        "countries_id": []
      },
      {
        "id": 3,
        "name": "Australia",
        "slug": "oceania",
        "countries_id": []
      },
      {
        "id": 4,
        "name": "Europe",
        "slug": "europe",
        "countries_id": []
      },
      {
        "id": 5,
        "name": "North America",
        "slug": "north-america",
        "countries_id": []
      },
      {
        "id": 6,
        "name": "South America",
        "slug": "south-america",
        "countries_id": [1,2,3,4,5,6]
      }
    ]
  },
  "countries": { 
    "slug": "countries",
    "label": "Countries",
    "headline": "All Countries", 
    "tooltip": "View all countries in an alphabetical list", 
    "modal": {
      "reinstate": "Reinstating a Country enables its highlight color and the ability to tap/click it on the map",
      "suspend": "Suspending a Country retains it's programs, but removes its highlight and the ability to tap/click it on the map. Useful, for example, when travel to a country has been suspended/limited"
    },
    "unfiltered" : []
  },
  "filters": {
    "": "Everywhere",
    "countries--active": "Active Countries Only",
    "countries--programs": "Countries with Programs",
    "continents": "Continents",
    "islands-archipelagos": "Islands"
  },
  "footer": {
    "text": "MSUBROADABROAD",
    "icon": "#icon__instagram", 
    "pStyle": "w-100 h-100 d-flex align-items-center justify-content-center mb-0 py-1 fw-bold text-primary small"
  },
  "gallery": {
    "title": "Gallery"
  },
  "galleries": {
    "slug":"galleries",
    "headline": "Galleries", 
    "tooltip": "View all galleries, by Country", 
    "label":"Galleries"
  },
  "screensavers": {
    "slug":"screensavers",
    "headline": "Attract Loop", 
    "tooltip": "", 
    "label":"Attract Loop",
    "title": "Education Abroad", 
    "cta": "Touch to Explore", 
    "wrapper": "container ms-0 bg-tertiary align-items-end justify-content-center"
  },
  "greeting": {
    "headline": "Touch a highlighted region to begin",
    "hStyle": "py-2 px-4 bg-primary w-100 fixed-bottom d-flex align-items-center",
    "h1Style": "h4 mb-0 fw-bold text-uppercase text-white"
  },
  "header": {
    "figStyle": "py-0 ps-3 text-start text-uppercase my-auto ms-0 me-auto"
  },  
  "headline": {
    "hStyle": "sticky sticky-top col-12 mb-2 pt-4 px-3 pb-4 bg-white",
    "btnStyle": "btn text-white ms-4 d-flex text-uppercase align-items-center", 
    "btnLabelNew": "Add New",
    "btnLabelDelete": "Delete"
  },
  "navigation": {
    "linkStyle": "d-flex h4 text-uppercase fw-bold px-4 my-0 align-items-center",
    "sublinkStyle": "btn btn-list-item py-1 px-3 text-uppercase text-start border-0 h4 mb-0",
    "tblStyle": "w-100 mb-3"
  },
  "programs": {
    "slug": "programs",
    "label": "Programs",
    "headline": "All Programs", 
    "tooltip": "View all Programs in a table with multiple pages", 
    "unfiltered": []
  },
  "qrcode": {
    "size": 65,
    "title": "QR Code",
    "description": "link to the an existing website detailing the selected countries programs and an image gallery"
  },
  "routes": ["world","continents","countries","programs","galleries","settings"],
  "settings": {
    "slug": "settings",
    "label": "Settings", 
    "headline": "Settings",
    "tooltip": "View all the current application settings", 
    "firebase": {
      "url": "https://firebasestorage.googleapis.com/v0/b/msu-study-abroad.appspot.com/o/",
      "api_key": "AIzaSyBDX1AoSQ35d7aPlPHfqunkLpL_MSip0NY",
      "auth_domain": "msu-study-abroad.firebaseapp.com",
      "project_id": "msu-study-abroad",
      "storage_bucket": "msu-study-abroad.appspot.com",
      "messaging_sender_id": "101022326580",
      "app_id": "1:101022326580:web:b404b091b59d4f4b3a4f61",
      "measurement_id": "G-0R88Z11R7S"
    },
    "pusher": {
      "id" : "1241500"
    }
  },
  "theme": {
    "article": "container ms-0 bg-white"
  },
  "upload": {
      "btn": {
          "label": "Upload"
      },
      "prefix": "Upload a new",
      "label": "Click or drag file to here to upload", 
      "suffix": "file",
      "supports": "Supports file upload", 
      "types": {
          "csv": [".csv"],
          "spreadsheet": [".xlsx",".xls"]
      }
  },
  "world": {
    "slug": "", 
    "headline": "Everywhere", 
    "description": "Edit programs, galleries, and countries from a map view", 
    "label": "World", 
    "figStyle": "w-100 h-100 d-flex align-items-center justify-content-center px-4 bg-aluminum", 
    "svgStyle": "w-100 h-100 py-2", 
    "stroke": {
      "width": "0.5",
      "color": "var(--bs-smoke)"
    },
    "viewBox": "0 0 1280 640", 
    "coordinates": {
      "africa": {
        "scale": 1.75,
        "originX": 0,
        "originY":  -12,
        "countries": {
          "scale": 2,
          "originX": -14,
          "originY":  -10
        }
      },
      "asia": {
        "scale": 1.5,
        "originX": -14,
        "originY":  6,
        "countries": {
          "scale": 1.5,
          "originX": -35,
          "originY":  6
        }
      },
      "europe": {
        "scale": 2.25,
        "originX": 0, 
        "originY":  11,
        "countries": {
          "scale": 2.25,
          "originX": -12.5, 
          "originY":  14
        }
      },
      "oceania": {
        "scale": 2.5,
        "originX": -25, 
        "originY":  -23,
        "countries": {
          "scale": 2.5,
          "originX": -43, 
          "originY":  -21
        }
      },
      "north-america": {
        "scale": 1.625,
        "originX": 24, 
        "originY":  7,
        "countries": {
          "scale": 1.75,
          "originX": 9, 
          "originY":  10
        }
      },
      "south-america": {
        "scale": 1.875,
        "originX": 14, 
        "originY":  -23,
        "countries": {
          "scale": 1.875,
          "originX": 2, 
          "originY":  -21
        }
      }
    }
  }
}