<?xml version="1.0" encoding="UTF-8"?>
<svg width="52px" height="60px" viewBox="0 0 52 60" version="1.1" xmlns="http://www.w3.org/2000/svg" xmlns:xlink="http://www.w3.org/1999/xlink">
  <path fill="#18453B" d="M48.0963 4.17009C48.0963 4.17009 45.0075 10.9128 43.419 14.1493C39.2826 12.2119 34.7596 11.2843 30.2095 11.4404C25.6594 11.5964 21.2078 12.8319 17.2088 15.0484C11.649 18.4647 6.97175 24.668 6.61875 31.4108C6.44225 35.7261 8.38375 40.6708 7.67775 45.166C7.54034 47.5116 6.94004 49.8049 5.91275 51.9087C4.50075 54.2462 2.824 56.2241 0 56.4039C0.5295 55.6846 5.03025 53.527 3.26525 43.5477C2.55925 39.592 -2.824 29.7925 2.38275 17.5657C7.2365 6.3008 27.6223 -6.88801 48.0963 4.17009Z"></path>
  <path fill="#18453B" d="M24.6218 23.769C27.3715 22.9273 30.2848 22.8036 33.0938 23.4094C35.6027 23.7524 37.975 24.7762 39.9623 26.3737C41.9496 27.9711 43.4788 30.0835 44.3898 32.4896C46.3313 37.6141 47.8315 41.5698 51.3615 45.8852C51.538 46.065 45.9783 44.9861 45.9783 44.9861C47.3903 35.0069 38.124 34.6473 35.3883 38.2434C36.3974 39.2985 37.629 40.1059 38.9898 40.6043C40.3506 41.1027 41.8049 41.2792 43.2425 41.1203C42.713 51.0996 45.3605 60 45.184 60C43.066 59.6404 32.829 53.6169 29.7403 50.9198C25.416 51.639 21.886 53.2572 16.8558 53.9765C16.6793 53.9765 17.7383 50.2005 17.5618 48.3126C17.5618 43.0083 13.5905 38.1535 16.5028 31.7704C18.1795 27.9045 20.6505 25.2074 24.6218 23.769Z"></path>
  <path fill="#18453B" d="M28.24 20.6224H28.946C29.04 19.7423 29.3072 18.8906 29.7318 18.1182C30.1564 17.3458 30.7296 16.6687 31.417 16.1272C32.9551 14.915 34.8563 14.28 36.8003 14.3292C34.1446 13.5041 31.348 13.2591 28.593 13.6099L28.24 20.6224Z"></path>
  <path fill="#18453B" d="M9.00156 29.6756C8.50987 32.0721 8.45006 34.5396 8.82506 36.9578C9.04528 35.499 9.65599 34.1303 10.5901 33.0021C11.5152 32.0929 12.7465 31.5783 14.0318 31.5636C14.0318 31.5636 14.3848 30.6646 14.2083 30.6646C14.2083 30.5747 9.00156 29.6756 9.00156 29.6756Z"></path>
  <path fill="#18453B" d="M14.7378 29.1632C14.9462 28.7584 15.1232 28.3375 15.2673 27.9046L9.884 25.7469C9.59574 26.447 9.35974 27.1683 9.178 27.9046L14.7378 29.1632Z"></path>
  <path fill="#18453B" d="M16.1497 27.1853L17.0322 26.1065L12.002 22.3305C11.4512 22.9573 11.0309 23.6913 10.7665 24.4882C10.8547 24.4882 16.1497 27.1853 16.1497 27.1853Z"></path>
  <path fill="#18453B" d="M18.003 25.0276L19.062 23.9488L14.7377 19.094C14.0971 19.7028 13.5067 20.3644 12.9727 21.0719L18.003 25.0276Z"></path>
  <path fill="#18453B" d="M20.1211 23.3824L21.3566 22.6632L18.0913 16.8195C17.2698 17.198 16.4988 17.6814 15.7968 18.258L20.1211 23.3824Z"></path>
  <path fill="#18453B" d="M22.5032 22.0608L23.915 21.5214L22.1503 14.9585C21.2496 15.2696 20.366 15.6297 19.5032 16.0373L22.5032 22.0608Z"></path>
  <path fill="#18453B" d="M25.151 21.1618L26.5628 20.8022L26.7392 13.6998C26.7392 13.6998 25.151 14.0594 23.651 14.419C23.7392 14.5089 25.151 21.1618 25.151 21.1618Z"></path>
</svg>