<?xml version="1.0" encoding="utf-8"?>
<!-- Generator: Adobe Illustrator 25.2.3, SVG Export Plug-In . SVG Version: 6.00 Build 0)  -->
<svg version="1.1" id="finger" xmlns="http://www.w3.org/2000/svg" xmlns:xlink="http://www.w3.org/1999/xlink" x="0px" y="0px"
	 viewBox="0 0 153 212" style="enable-background:new 0 0 153 212;" xml:space="preserve">
<style type="text/css">
	.st0{fill:#18453B;}
	.st1{fill:#FFFFFF;}
</style>
<path class="st0" d="M67.8,201.3l0.1,0.1c5.3,3.7,6.6,3.7,27.7,3.7h22.7l4.7-2.5c7.5-3.9,14.9-10.5,19.3-17.1
	c2.7-4,4.4-7.7,5.6-12.4l1.1-4l0.1-22.6c-0.1-22.8-0.3-23.5-0.7-25c-0.5-1.7-1.6-3.7-2.8-5c-2.6-3-6.5-4.8-10.4-4.8
	c-2.8,0-5.5,0.8-7.7,2.3c-0.2-0.6-0.5-1.2-0.8-1.9c-2.3-4.4-6.4-7-11.5-7.2c-0.5,0-1,0-1.4,0c-2.1,0-3.8,0.4-5.6,1.3l-0.1,0.1
	c-0.5,0.2-0.9,0.5-1.3,0.8c-0.3-1-0.9-2-1.7-3.2c-2.7-3.8-6.9-6-11.5-6c-2.5,0-4.9,0.7-6.9,1.8c0-2,0-9.4,0-9.4c0-22,0-23.2-1-25.6
	v-0.1c-1.3-3-3.4-5.3-6.4-6.9c-2-1-4.2-1.6-6.5-1.6c-3.7,0-7.1,1.4-9.7,3.9c-0.1,0.1-0.1,0.1-0.2,0.2c-4,3.6-4,3.6-4.2,34.6
	l-0.2,31.6c-0.5-0.5-1.1-1.1-1.7-1.7c-8.8-9.1-10.2-9.9-10.9-10.3l-0.1-0.1c-1.9-1-4-1.5-6.1-1.5c-7.5,0-13.9,6.3-13.9,13.7
	c0,3.6,1.6,6.9,4,10.8c2,3.3,5.3,9.8,10,19.8c0.1,0.2,6.3,11.2,7.9,14.5C58.1,196.7,67.7,201.1,67.8,201.3"/>
<path class="st1" d="M141.9,146.4l-0.1,21.7l-0.8,3.1c-1.1,4-2.4,7-4.7,10.3c-3.7,5.6-10.2,11.3-16.7,14.7l-3.2,1.7H97
	c-22,0-21.7,0-25.4-2.5c-7-4.8-13.9-15.8-25.1-40.2c-5-11-8.6-18.1-10.9-21.8c-2-3.3-2.9-5.3-2.9-7c0-4.8,5.5-8.3,9.7-6
	c0.7,0.4,4.8,4.4,9.4,9.1c4.4,4.6,8.4,8.5,8.7,8.7c1.2,0.7,3,0.5,4-0.4l0.9-0.8l0.2-34.6c0.2-38.3,0-35.3,2.3-37.6
	c2-2,5.3-2.5,8-1.1c1.6,0.8,2.5,1.9,3.2,3.4c0.4,1,0.5,4.1,0.5,22.9c0,24.2-0.1,23.2,2.2,24.2c2.3,1,4.4-0.4,4.8-3.3
	c0.9-6.5,9-8.5,12.7-3.1c1,1.4,1,1.5,1.1,6.7l0.2,5.2l1.1,0.9c1.6,1.4,3.6,1.2,5-0.5c0.3-0.4,0.6-1,0.6-1.5c0-2.5,1.6-5,4-6.3
	c1-0.5,1.8-0.6,3.5-0.5c2.7,0.1,4.6,1.3,5.7,3.5c0.7,1.3,0.7,1.9,0.7,6c0,4.9,0.3,6,1.9,6.7c2.6,1.2,4.7-0.2,5.1-3.3
	c0.7-5.9,8.2-8.2,12.1-3.7c0.6,0.7,1.2,1.8,1.4,2.4C141.9,124.3,142,131.2,141.9,146.4z"/>
</svg>
